%YAML 1.1
%TAG !u! tag:unity3d.com,2011:
--- !u!21 &2100000
Material:
  serializedVersion: 6
  m_ObjectHideFlags: 0
  m_CorrespondingSourceObject: {fileID: 0}
  m_PrefabInstance: {fileID: 0}
  m_PrefabAsset: {fileID: 0}
  m_Name: glow_add
  m_Shader: {fileID: 200, guid: 0000000000000000f000000000000000, type: 0}
  m_ShaderKeywords: 
  m_LightmapFlags: 5
  m_EnableInstancingVariants: 0
  m_DoubleSidedGI: 0
  m_CustomRenderQueue: -1
  stringTagMap: {}
  disabledShaderPasses: []
  m_SavedProperties:
    serializedVersion: 3
    m_TexEnvs:
    - _Distort:
        m_Texture: {fileID: 2800000, guid: b58cfae0f43008942b54b2875a926e5a, type: 3}
        m_Scale: {x: 1, y: 1}
        m_Offset: {x: 31.136408, y: -31.136408}
    - _LavaTex:
        m_Texture: {fileID: 2800000, guid: d3f6b18d152c20e4e8bc3a280e873dc9, type: 3}
        m_Scale: {x: 1, y: 1}
        m_Offset: {x: 0.44087234, y: 0}
    - _MainTex:
        m_Texture: {fileID: 10300, guid: 0000000000000000f000000000000000, type: 0}
        m_Scale: {x: 1, y: 1}
        m_Offset: {x: 0, y: 0}
    - _MaskTex:
        m_Texture: {fileID: 2800000, guid: c9991c1099798f64dafc761fddf673ac, type: 3}
        m_Scale: {x: 1, y: 1}
        m_Offset: {x: 0, y: 0}
    m_Floats:
    - _DistortX: 0.75
    - _DistortY: 0.9285714
    - _InvFade: 1
    m_Colors:
    - _Color: {r: 1, g: 1, b: 1, a: 1}
    - _TintColor: {r: 1, g: 0, b: 0, a: 0.5}
  m_BuildTextureStacks: []
