%YAML 1.1
%TAG !u! tag:unity3d.com,2011:
--- !u!162 &1
EditorUserSettings:
  m_ObjectHideFlags: 0
  serializedVersion: 4
  m_ConfigSettings:
    RecentlyUsedScenePath-0:
      value: 224247031146467d0c001823033a1f231d0e1a2534680002080c5217e7ed3b77c4e638fde629267c0a09f63e0b264119c02f2c4bd20e07045146a45841e7464341d5008c54dd1115df00
      flags: 0
    RecentlyUsedScenePath-1:
      value: 22424703114646770c180d1d362f50071f191f151f202734283b5200e1e53a3df1a810c5e82d36323e2eee2a05701431fb1e10
      flags: 0
    RecentlyUsedScenePath-2:
      value: 224247031146466806170e2d086c6c1313191d6521292f3e1e2a183de7ae2136ebf32f
      flags: 0
    RecentlyUsedScenePath-3:
      value: 22424703114646780c1a182e153a5e5f321215251f2b233e2867083debf42d
      flags: 0
    RecentlyUsedScenePath-4:
      value: 2242470311464668190b0d2f332a4b09592717393818343f2e2c0e20ebee3377d7f33fe5ee2e36392a4dcc29172a0e32df051d02f9053e0e091ae81c14b0350b10c808c91ffb1c19c51c52dbc314c5fa
      flags: 0
    RecentlyUsedScenePath-5:
      value: 2242470311464668190b0d2f332a4b0959283c2f212715332827187cc5e92634d1e433e7e2742a323016f6
      flags: 0
    RecentlyUsedScenePath-6:
      value: 22424703114646680e0b0227036c6c111b07142f1f2b233e2867083debf42d
      flags: 0
    RecentlyUsedScenePath-7:
      value: 2242470311464676020a092e036c7b151b1858192f2d2835620d183eedae2136ebf32f
      flags: 0
    RecentlyUsedScenePath-8:
      value: 224247031146466e2c384c16022a5b151803571f0d1e66043f201936ecf47a2decee22f0
      flags: 0
    lightmappingDeviceAndPlatform:
      value: 53
      flags: 0
    vcSharedLogLevel:
      value: 0d5e400f0650
      flags: 0
  m_VCAutomaticAdd: 1
  m_VCDebugCom: 0
  m_VCDebugCmd: 0
  m_VCDebugOut: 0
  m_SemanticMergeMode: 2
  m_VCShowFailedCheckout: 1
  m_VCOverwriteFailedCheckoutAssets: 1
  m_VCProjectOverlayIcons: 1
  m_VCHierarchyOverlayIcons: 1
  m_VCOtherOverlayIcons: 1
  m_VCAllowAsyncUpdate: 0
